Tutoriales R: ¿Cómo importar datos en R?
…
A continuación veremos como cargar el archivo urbana_weather.xlsx que contiene datos meteorológicos de la ciudad de Urbana (IL).

Desde la consola (recomendado)

Una vez que descargamos el archivo datos en la carpeta data dentro de nuestro directorio de trabajo o proyecto podemos leerlo en R usando la función import() del paquete rio. Esta función se encargará de llamar la función necesaria para leer el archivo que le suministremos.

# Cargar rio (si no estaba cargado antes)
pacman::p_load(rio)

# importar los datos
urbana <- import("./data/urbana_weather.xlsx", setclass = "tibble")
urbana

# A tibble: 240 × 4
    YEAR month precip  temp
   <dbl> <chr>  <dbl> <dbl>
 1  2000 Jan     1.54  25.6
 2  2001 Jan     1.32  25.4
 3  2002 Jan     2.81  34  
 4  2003 Jan     0.79  21.1
 5  2004 Jan     2.18  24  
 6  2005 Jan     6.2   27.8
 7  2006 Jan     1.78  37.8
 8  2007 Jan     3.03  29.7
 9  2008 Jan     2.31  26.2
10  2009 Jan     0.68  18.8
# … with 230 more rows
…
Opciones de importación: aquí se puede especificar el nombre del objeto que se creará dentro de R (Name), la cantidad de lineas a leer, el número de la hoja, el rango de celdas, líneas a saltear (skip) y el identificador de datos NA.

Vista previa del código. En esta parte se puede visualizar como se construye el comando que se ejecturará al clickear en Import.

Aclaración: es muy importante que el código generado por este asistente sea incluido en el script para futuras sesiones.

Verificación de los datos

Una vez importados los datos es conveniente verificar como han sido leidos en el R.

Como vimos antes, una alternativa es imprimirlo escribiendo el nombre del objeto directamente en la consola.

urbana

# A tibble: 240 × 4
    YEAR month precip  temp
   <dbl> <chr>  <dbl> <dbl>
 1  2000 Jan     1.54  25.6
 2  2001 Jan     1.32  25.4
 3  2002 Jan     2.81  34  
 4  2003 Jan     0.79  21.1
 5  2004 Jan     2.18  24  
 6  2005 Jan     6.2   27.8
 7  2006 Jan     1.78  37.8
 8  2007 Jan     3.03  29.7
 9  2008 Jan     2.31  26.2
10  2009 Jan     0.68  18.8
# … with 230 more rows
…
