Tutoriales R: ¿Cómo manipular datos con `dplyr`?
…
# Cargar los datos con readxl
library(readxl)
terneros <- read_excel("./data/pesada_terneros.xlsx")

Seleccionando variables

Una tareas básicas cuando se exploran datos es la selección de columnas de interés (variables). Esto se lleva a cabo con select().

Para seleccionar las columnas Procedencia, IDV y Peso:

# Sin asignar
select(terneros, Procedencia, IDV, Peso)

# A tibble: 1,598 × 3
   Procedencia IDV        Peso
   <chr>       <chr>     <dbl>
 1 La Rosita   NR047A202   204
 2 La Rosita   GN685B267   186
 3 La Rosita   AI101A751   182
 4 La Rosita   TM603C877   186
 5 La Rosita   TM420B797   186
 6 La Rosita   LH837F500   208
 7 La Rosita   NR047A217   170
 8 La Rosita   LH837F508   188
 9 La Rosita   GN685B256   172
10 La Rosita   QW110A058   172
# … with 1,588 more rows

# Creando un nuevo set de datos
mis_columnas <- select(terneros, Procedencia, IDV, Peso)

Por defecto, si no se asigna a un nuevo objeto, el resultado de la operación se imprime en la consola con la función print() la cual por defecto muestra las 10 primeras observaciones y la cantidad de columnas que entran en la pantalla. Aquellas columnas que no entran son indicadas al pie.

Si quiero ver más registros se puede usar el argumento n = de print()

print(mis_columnas, n = 15)

# A tibble: 1,598 × 3
   Procedencia IDV        Peso
   <chr>       <chr>     <dbl>
 1 La Rosita   NR047A202   204
 2 La Rosita   GN685B267   186
 3 La Rosita   AI101A751   182
 4 La Rosita   TM603C877   186
 5 La Rosita   TM420B797   186
 6 La Rosita   LH837F500   208
 7 La Rosita   NR047A217   170
 8 La Rosita   LH837F508   188
 9 La Rosita   GN685B256   172
10 La Rosita   QW110A058   172
11 La Rosita   LH837F497   188
12 La Rosita   TM420B803   180
13 La Rosita   LH837F514   198
14 La Rosita   II641B940   200
15 La Rosita   IY735C      242
# … with 1,583 more rows

Con n = "all" se imprimen todas (no se muestra por razones obvias)

El orden en que aparecen las variables en el resultado es el orden que se utilizó al seleccionarlas.

# El orden altera el producto
select(terneros, Procedencia, IDV, Peso)

# A tibble: 1,598 × 3
   Procedencia IDV        Peso
   <chr>       <chr>     <dbl>
 1 La Rosita   NR047A202   204
 2 La Rosita   GN685B267   186
 3 La Rosita   AI101A751   182
 4 La Rosita   TM603C877   186
 5 La Rosita   TM420B797   186
 6 La Rosita   LH837F500   208
 7 La Rosita   NR047A217   170
 8 La Rosita   LH837F508   188
 9 La Rosita   GN685B256   172
10 La Rosita   QW110A058   172
# … with 1,588 more rows

También se puede usar los comnados starts_with(), ends_with(), contains(), etc (ver ?select_helpers) para más opciones). Para elegir varias columnas que tienen un patron sin tener que tipear todos los nombres.

# Selecciona columnas que empiezan con P
select(terneros, starts_with("P"))

# A tibble: 1,598 × 2
   Procedencia  Peso
   <chr>       <dbl>
 1 La Rosita     204
 2 La Rosita     186
 3 La Rosita     182
 4 La Rosita     186
 5 La Rosita     186
 6 La Rosita     208
 7 La Rosita     170
 8 La Rosita     188
 9 La Rosita     172
10 La Rosita     172
# … with 1,588 more rows

Para omitir algunas columnas en la seleccion se puede usar el - antes del nombre.

# Selecciona columnas que empiezan con P
select(terneros, -IDV, -starts_with("P"))

# A tibble: 1,598 × 5
   Sexo  `Fecha Ingreso`     Categoria Fecha              
   <chr> <dttm>              <chr>     <dttm>             
 1 Macho 2017-07-20 00:00:00 Ternero   2017-04-06 00:00:00
 2 Macho 2017-07-20 00:00:00 Ternero   2017-04-06 00:00:00
 3 Macho 2017-07-21 00:00:00 Ternero   2017-04-06 00:00:00
 4 Macho 2017-07-20 00:00:00 Ternero   2017-04-06 00:00:00
 5 Macho 2017-07-24 00:00:00 Ternero   2017-04-06 00:00:00
 6 Macho 2017-07-24 00:00:00 Ternero   2017-04-06 00:00:00
 7 Macho 2017-07-21 00:00:00 Ternero   2017-04-06 00:00:00
 8 Macho 2017-07-24 00:00:00 Ternero   2017-04-06 00:00:00
 9 Macho 2017-07-21 00:00:00 Ternero   2017-04-06 00:00:00
10 Macho 2017-07-24 00:00:00 Ternero   2017-04-06 00:00:00
# … with 1,588 more rows, and 1 more variable: Hora <dttm>

Seleccionando observaciones

Otra tarea muy frecuente es seleccionar casos o observaciones que cumplan con alguna condición. Esto se lleva a cabo con filter(). Se pueden usar los operadores booleanos ==, >, <, >=, <=, !=, %in%) para crear pruebas o condiciones lógicas.

Para seleccionar los terneros de Los Corralitos:

# Sin asignar
filter(terneros, Procedencia == 'Los Corralitos')

# A tibble: 575 × 8
   IDV       Procedencia    Sexo  `Fecha Ingreso`     Categoria
   <chr>     <chr>          <chr> <dttm>              <chr>    
 1 PO150A167 Los Corralitos Macho 2017-07-23 00:00:00 Ternero  
 2 PO150A168 Los Corralitos Macho 2017-07-22 00:00:00 Ternero  
 3 PO150A169 Los Corralitos Macho 2017-07-22 00:00:00 Ternero  
 4 PO150A460 Los Corralitos Macho 2017-07-23 00:00:00 Ternero  
 5 PO150A673 Los Corralitos Macho 2017-07-22 00:00:00 Ternero  
 6 PO150A461 Los Corralitos Macho 2017-07-22 00:00:00 Ternero  
 7 PO150A462 Los Corralitos Macho 2017-07-22 00:00:00 Ternero  
 8 PO150A463 Los Corralitos Macho 2017-07-22 00:00:00 Ternero  
 9 PO150A433 Los Corralitos Macho 2017-06-06 00:00:00 Ternero  
10 PO150A434 Los Corralitos Macho 2017-07-22 00:00:00 Ternero  
# … with 565 more rows, and 3 more variables: Fecha <dttm>,
#   Hora <dttm>, Peso <dbl>

# Creando un nuevo set de datos
corralitos <- filter(terneros, Procedencia == 'Los Corralitos')

La seleccion se puede hacer por más de una condicion. Por ejemplo, seleccionar los de Los Corralitos que pesen más de 200 kg:

filter(terneros, Procedencia == 'Los Corralitos', Peso > 200)

# A tibble: 260 × 8
   IDV       Procedencia    Sexo  `Fecha Ingreso`     Categoria
   <chr>     <chr>          <chr> <dttm>              <chr>    
 1 PO150A167 Los Corralitos Macho 2017-07-23 00:00:00 Ternero  
 2 PO150A168 Los Corralitos Macho 2017-07-22 00:00:00 Ternero  
 3 PO150A169 Los Corralitos Macho 2017-07-22 00:00:00 Ternero  
 4 PO150A673 Los Corralitos Macho 2017-07-22 00:00:00 Ternero  
 5 PO150A462 Los Corralitos Macho 2017-07-22 00:00:00 Ternero  
 6 PO150A463 Los Corralitos Macho 2017-07-22 00:00:00 Ternero  
 7 PO150A434 Los Corralitos Macho 2017-07-22 00:00:00 Ternero  
 8 PO150A435 Los Corralitos Macho 2017-07-23 00:00:00 Ternero  
 9 PO150A675 Los Corralitos Macho 2017-07-22 00:00:00 Ternero  
10 PO150A681 Los Corralitos Macho 2017-07-22 00:00:00 Ternero  
# … with 250 more rows, and 3 more variables: Fecha <dttm>,
#   Hora <dttm>, Peso <dbl>

filter() asume que cada condicion se debe cumplir en simultaneo para que la observación sea seleccionada. Esto equivale a utilizar el operador & (Y). En caso de querer seleccionar aquellos registros que cumple una u otra condicion se usa el operador | (O). Poniendo ! delante de la condicion se invierte la selección.

# Operador &
filter(terneros, Procedencia == 'Los Corralitos' & Peso > 200)

# A tibble: 260 × 8
   IDV       Procedencia    Sexo  `Fecha Ingreso`     Categoria
   <chr>     <chr>          <chr> <dttm>              <chr>    
 1 PO150A167 Los Corralitos Macho 2017-07-23 00:00:00 Ternero  
 2 PO150A168 Los Corralitos Macho 2017-07-22 00:00:00 Ternero  
 3 PO150A169 Los Corralitos Macho 2017-07-22 00:00:00 Ternero  
 4 PO150A673 Los Corralitos Macho 2017-07-22 00:00:00 Ternero  
 5 PO150A462 Los Corralitos Macho 2017-07-22 00:00:00 Ternero  
 6 PO150A463 Los Corralitos Macho 2017-07-22 00:00:00 Ternero  
 7 PO150A434 Los Corralitos Macho 2017-07-22 00:00:00 Ternero  
 8 PO150A435 Los Corralitos Macho 2017-07-23 00:00:00 Ternero  
 9 PO150A675 Los Corralitos Macho 2017-07-22 00:00:00 Ternero  
10 PO150A681 Los Corralitos Macho 2017-07-22 00:00:00 Ternero  
# … with 250 more rows, and 3 more variables: Fecha <dttm>,
#   Hora <dttm>, Peso <dbl>

# Operador |
filter(terneros, Procedencia == 'Los Corralitos' | Peso > 200)

# A tibble: 779 × 8
   IDV       Procedencia  Sexo  `Fecha Ingreso`     Categoria
   <chr>     <chr>        <chr> <dttm>              <chr>    
 1 NR047A202 La Rosita    Macho 2017-07-20 00:00:00 Ternero  
 2 LH837F500 La Rosita    Macho 2017-07-24 00:00:00 Ternero  
 3 IY735C    La Rosita    Macho 2017-07-22 00:00:00 Ternero  
 4 QW110A072 La Rosita    Macho 2017-07-24 00:00:00 Ternero  
 5 LH837F526 La Rosita    Macho 2017-07-20 00:00:00 Ternero  
 6 DS289A491 La Rosita    Macho 2017-07-24 00:00:00 Ternero  
 7 TL698HK39 La Rosita    Macho 2017-07-20 00:00:00 Ternero  
 8 LH837F538 La Rosita    Macho 2017-07-21 00:00:00 Ternero  
 9 IW751A017 La Rosita    Macho 2017-07-24 00:00:00 Ternero  
10 NO133A004 Las Glicinas Macho 2017-07-23 00:00:00 Ternero  
# … with 769 more rows, and 3 more variables: Fecha <dttm>,
#   Hora <dttm>, Peso <dbl>

Con el operador %in% se puede especificar un rango de valores que deben cumplir. Por ejemplo terneros de Los Corralitos, Las Glicinas y Don Alberto

# Indicando cada nombre
filter(terneros, Procedencia == 'Los Corralitos', Procedencia == 'Las Glicinas', Procedencia == 'Don Alberto')

# A tibble: 0 × 8
# … with 8 variables: IDV <chr>, Procedencia <chr>, Sexo <chr>,
#   Fecha Ingreso <dttm>, Categoria <chr>, Fecha <dttm>, Hora <dttm>,
#   Peso <dbl>

# Más resumido con %in%
filter(terneros, Procedencia %in% c('Los Corralitos', 'Las Glicinas', 'Don Alberto'))

# A tibble: 1,138 × 8
   IDV       Procedencia  Sexo  `Fecha Ingreso`     Categoria
   <chr>     <chr>        <chr> <dttm>              <chr>    
 1 SZ208I507 Las Glicinas Macho 2017-07-20 00:00:00 Ternero  
 2 SZ208H993 Las Glicinas Macho 2017-06-05 00:00:00 Ternero  
 3 SZ208H849 Las Glicinas Macho 2017-06-05 00:00:00 Ternero  
 4 SZ208H777 Las Glicinas Macho 2017-06-05 00:00:00 Ternero  
 5 GT542A562 Las Glicinas Macho 2017-07-21 00:00:00 Ternero  
 6 OQ152A550 Las Glicinas Macho 2017-07-21 00:00:00 Ternero  
 7 NO133A057 Las Glicinas Macho 2017-07-24 00:00:00 Ternero  
 8 SZ208H888 Las Glicinas Macho 2017-07-22 00:00:00 Ternero  
 9 OQ152A566 Las Glicinas Macho 2017-07-20 00:00:00 Ternero  
10 NO133A047 Las Glicinas Macho 2017-07-20 00:00:00 Ternero  
# … with 1,128 more rows, and 3 more variables: Fecha <dttm>,
#   Hora <dttm>, Peso <dbl>

Encadenando operaciones (operador %>%)

dplyr importa el operador %>% de otro paquete llamado magrittr. Este operador permite encadenar operaciones realizadas con los verbos. De este modo no hay que ir creando tablas intermedias o anidar funciones. El operador traduce como luego y se le de izquierda a derecha y se puede.

Ejemplo: Reportar los IDV y peso de los terneros con más de 250 kg. Esto implicaría seleccionar las columnas de interés y luego filtrar la tabla o vice versa.

# Creando tablas intermedias
terneros2 <- select(terneros, IDV, Peso)
terneros2

# A tibble: 1,598 × 2
   IDV        Peso
   <chr>     <dbl>
 1 NR047A202   204
 2 GN685B267   186
 3 AI101A751   182
 4 TM603C877   186
 5 TM420B797   186
 6 LH837F500   208
 7 NR047A217   170
 8 LH837F508   188
 9 GN685B256   172
10 QW110A058   172
# … with 1,588 more rows

terneros2 <- filter(terneros2, Peso > 250)
terneros2

# A tibble: 75 × 2
   IDV        Peso
   <chr>     <dbl>
 1 NO133A004   258
 2 OQ152A456   258
 3 NO133A006   256
 4 OQ152A553   256
 5 PO150A166   290
 6 PO150A674   256
 7 PO150A656   272
 8 NO133A045   264
 9 PO150A571   264
10 PO150A686   262
# … with 65 more rows

# Anidando
filter(select(terneros, IDV, Peso), Peso > 250)

# A tibble: 75 × 2
   IDV        Peso
   <chr>     <dbl>
 1 NO133A004   258
 2 OQ152A456   258
 3 NO133A006   256
 4 OQ152A553   256
 5 PO150A166   290
 6 PO150A674   256
 7 PO150A656   272
 8 NO133A045   264
 9 PO150A571   264
10 PO150A686   262
# … with 65 more rows

# Usando %>%
terneros %>%
  select(IDV, Peso) %>%
  filter(Peso >  250)

# A tibble: 75 × 2
   IDV        Peso
   <chr>     <dbl>
 1 NO133A004   258
 2 OQ152A456   258
 3 NO133A006   256
 4 OQ152A553   256
 5 PO150A166   290
 6 PO150A674   256
 7 PO150A656   272
 8 NO133A045   264
 9 PO150A571   264
10 PO150A686   262
# … with 65 more rows
…
La última opción se lee: _tomar la tabla terneros, luego seleccionar las columnas IDV y Peso, luego filtrar los terneros con pesos mayores a 250 kg.

El operador de encadenamiento es muy útil cuando se encadenan muchas operaciones.

Ordenar las filas

Para ordenar según algun criterio aplicado a las columnas se usa arrange(). Por ejemplo, continuar con lo anterior pero mostrar ordenadospor peso.

# Ordenar de menor a mayor
terneros %>%
  select(IDV, Peso) %>%
  filter(Peso >  250) %>%
  arrange(Peso)

# A tibble: 75 × 2
   IDV        Peso
   <chr>     <dbl>
 1 PO150A546   252
 2 NS509H081   252
 3 PO15A710    252
 4 NO133A019   254
 5 PO150A784   254
 6 IA671B182   254
 7 IA671B176   254
 8 PO150A716   254
 9 NO133A006   256
10 OQ152A553   256
# … with 65 more rows

Con decs(variable) se ordena de mayor a menor

# Ordenar de mayor a menor
terneros %>%
  select(IDV, Peso) %>%
  filter(Peso >  250) %>%
  arrange(desc(Peso))

# A tibble: 75 × 2
   IDV        Peso
   <chr>     <dbl>
 1 PO150A679   304
 2 IA671B041   294
 3 MM429A932   292
 4 PO150A166   290
 5 PO150A763   288
 6 IA671B106   288
 7 NS509G964   286
 8 PO150A821   284
 9 IA671B045   282
10 NO133A000   280
# … with 65 more rows

Crear o transformar columnas

Para crear nuevas columnas aplicando funciones a otras, o bien para transformar columnas se usa mutate(). Se pueden modificar más de una columna a la vez. Por ejemplo, suponiendo que interesa obtener el logaritmo natura de los pesos o elevar los pesos al cuadrado.

terneros %>% 
  mutate(log_peso = log(Peso), peso2 = Peso**2) %>%
  select(Peso, log_peso, peso2)                        # para que se vea mejor el resultado 

# A tibble: 1,598 × 3
    Peso log_peso peso2
   <dbl>    <dbl> <dbl>
 1   204     5.32 41616
 2   186     5.23 34596
 3   182     5.20 33124
 4   186     5.23 34596
 5   186     5.23 34596
 6   208     5.34 43264
 7   170     5.14 28900
 8   188     5.24 35344
 9   172     5.15 29584
10   172     5.15 29584
# … with 1,588 more rows
…
Muestrear

El verbo sample_n() and sample_frac() son útiles para tomar muestras aleatorias (con o sin reposición) de un conjunto de observaciones. También se puede hacer por subgrupo!

# Una muestra de 50 novillos
muestra50 <- terneros %>%
  sample_n(50)
muestra50

# A tibble: 50 × 10
   IDV       Procedencia    Sexo  `Fecha Ingreso`     Categoria
   <chr>     <chr>          <chr> <dttm>              <chr>    
 1 PO150A764 Los Corralitos Macho 2017-07-20 00:00:00 Ternero  
 2 SZ208H756 Las Glicinas   Macho 2017-07-20 00:00:00 Ternero  
 3 NO133A053 Las Glicinas   Macho 2017-07-23 00:00:00 Ternero  
 4 PO150A463 Los Corralitos Macho 2017-07-22 00:00:00 Ternero  
 5 SZ208H744 Las Glicinas   Macho 2017-07-21 00:00:00 Ternero  
 6 NS509H021 Los Corralitos Macho 2017-07-22 00:00:00 Ternero  
 7 SZ208H735 Las Glicinas   Macho 2017-07-21 00:00:00 Ternero  
 8 GT542A662 Las Glicinas   Macho 2017-07-21 00:00:00 Ternero  
 9 SZ208H865 Las Glicinas   Macho 2017-07-20 00:00:00 Ternero  
10 SZ208H818 Las Glicinas   Macho 2017-07-24 00:00:00 Ternero  
# … with 40 more rows, and 5 more variables: Fecha <dttm>,
#   Hora <dttm>, Peso <dbl>, log_peso <dbl>, peso2 <dbl>

# Una muestra de 10 novillos de cada procedencia
muestra_procedencia <- terneros %>%
  group_by(Procedencia) %>%
  sample_n(10)
muestra_procedencia

# A tibble: 70 × 10
# Groups:   Procedencia [7]
   IDV       Procedencia Sexo  `Fecha Ingreso`     Categoria
   <chr>     <chr>       <chr> <dttm>              <chr>    
 1 GH738B351 Don Alberto Macho 2017-06-16 00:00:00 Ternero  
 2 GH738B383 Don Alberto Macho 2017-06-16 00:00:00 Ternero  
 3 GH738B326 Don Alberto Macho 2017-07-20 00:00:00 Ternero  
 4 GH738B348 Don Alberto Macho 2017-07-23 00:00:00 Ternero  
 5 GH738B372 Don Alberto Macho 2017-07-24 00:00:00 Ternero  
 6 GH738B350 Don Alberto Macho 2017-07-22 00:00:00 Ternero  
 7 GH738B347 Don Alberto Macho 2017-07-23 00:00:00 Ternero  
 8 GH738B343 Don Alberto Macho 2017-06-16 00:00:00 Ternero  
 9 GH738B381 Don Alberto Macho 2017-07-22 00:00:00 Ternero  
10 GH738B332 Don Alberto Macho 2017-07-23 00:00:00 Ternero  
# … with 60 more rows, and 5 more variables: Fecha <dttm>,
#   Hora <dttm>, Peso <dbl>, log_peso <dbl>, peso2 <dbl>
…
